Cancer Trials Explorer (CTE) – examples
…
Data access

To access the data you first need to load the library.

library(CTE)

Then, the dataset is stored in separate files available in lazy mode (i.e., loaded when needed).

For example, to query the list of cancer-related clinical trials in the data you can type the following:

Clinical trial basic information

data(ct_info)
ct_info
#> # A tibble: 16,598 × 7
#>    id          title   status date       description  enrollment enrollment_type
#>    <chr>       <chr>   <chr>  <date>     <chr>             <dbl> <chr>          
#>  1 NCT00000122 <NA>    Compl… 1999-09-23 "Filtering …         NA <NA>           
#>  2 NCT00000125 Ocular… Compl… 1999-09-23 "OHTS Phase…       1636 Actual         
#>  3 NCT00000132 <NA>    Unkno… 1999-09-23 "Glaucoma i…         NA <NA>           
#>  4 NCT00000144 <NA>    Compl… 1999-09-23 "During the…         NA <NA>           
#>  5 NCT00000148 <NA>    Unkno… 1999-09-23 "In advance…         NA <NA>           
#>  6 NCT00000149 <NA>    Unkno… 1999-09-23 "Recent stu…         NA <NA>           
#>  7 NCT00000660 Phase … Compl… 1999-11-02 "VP-16 is a…         24 <NA>           
#>  8 NCT00000681 A Phas… Compl… 1999-11-02 "Patients i…         24 <NA>           
#>  9 NCT00000687 Phase … Compl… 1999-11-02 "In a recen…         60 <NA>           
#> 10 NCT00000694 A Phas… Compl… 1999-11-02 "Studies sh…         18 <NA>           
#> # … with 16,588 more rows

Clinical trial list of associated interventions (e.g., drug treatments)

data(ct_interv)
ct_interv
#> # A tibble: 23,273 × 2
#>    id          name                                 
#>    <chr>       <chr>                                
#>  1 NCT00000122 5-Fluorouracil                       
#>  2 NCT00000125 Topical ocular hypotensive eye drops.
#>  3 NCT00000132 Betaxolol                            
#>  4 NCT00000149 Beta Blocker                         
#>  5 NCT00000660 Etoposide                            
#>  6 NCT00000681 Bleomycin sulfate                    
#>  7 NCT00000681 Vincristine sulfate                  
#>  8 NCT00000681 Doxorubicin hydrochloride            
#>  9 NCT00000681 Zidovudine                           
#> 10 NCT00000681 Sargramostim                         
#> # … with 23,263 more rows

Clinical trial list of associated targeted conditions

data(ct_cond)
ct_cond
#> # A tibble: 66,114 × 2
#>    id          condition          
#>    <chr>       <chr>              
#>  1 NCT00000122 Glaucoma           
#>  2 NCT00000125 Ocular Hypertension
#>  3 NCT00000125 Glaucoma           
#>  4 NCT00000132 Open-Angle Glaucoma
#>  5 NCT00000144 Open-Angle Glaucoma
#>  6 NCT00000148 Glaucoma           
#>  7 NCT00000149 Open-Angle Glaucoma
#>  8 NCT00000660 Sarcoma, Kaposi    
#>  9 NCT00000660 HIV Infections     
#> 10 NCT00000681 Sarcoma, Kaposi    
#> # … with 66,104 more rows

Drug bank list of drugs

data(drugbank)
drugbank
#> # A tibble: 14,315 × 3
#>    id      name                  synonyms                                       
#>    <chr>   <chr>                 <chr>                                          
#>  1 DB00001 Lepirudin             Hirudin variant-1 | Lepirudin recombinant      
#>  2 DB00002 Cetuximab             Cetuximab | Cétuximab | Cetuximabum            
#>  3 DB00003 Dornase alfa          Deoxyribonuclease (human clone 18-1 protein mo…
#>  4 DB00004 Denileukin diftitox   Denileukin | Interleukin-2/diptheria toxin fus…
#>  5 DB00005 Etanercept            Etanercept | etanercept-szzs | etanercept-ykro…
#>  6 DB00006 Bivalirudin           Bivalirudin | Bivalirudina | Bivalirudinum     
#>  7 DB00007 Leuprolide            Leuprorelin | Leuprorelina | Leuproreline | Le…
#>  8 DB00008 Peginterferon alfa-2a PEG-IFN alfa-2A | PEG-Interferon alfa-2A | Peg…
#>  9 DB00009 Alteplase             Alteplasa | Alteplase (genetical recombination…
#> 10 DB00010 Sermorelin            <NA>                                           
#> # … with 14,305 more rows

Repurposing Hub list of drugs with functional annotations

data(repurp)
repurp
#> # A tibble: 6,798 × 6
#>    pert_iname   clinical_phase moa       target         disease_area  indication
#>    <chr>        <chr>          <chr>     <chr>          <chr>         <chr>     
#>  1 (R)-(-)-apo… Launched       dopamine… ADRA2A|ADRA2B… neurology/ps… Parkinson…
#>  2 (R)-(-)-rol… Phase 1        phosphod… PDE4A|PDE4B|P… <NA>          <NA>      
#>  3 (R)-baclofen Phase 3        benzodia… GABBR1|GABBR2  <NA>          <NA>      
#>  4 (S)-(+)-rol… Phase 1        phosphod… PDE4B|PDE4D    <NA>          <NA>      
#>  5 [sar9,met(o… Preclinical    tachykin… TACR1          <NA>          <NA>      
#>  6 A-1070722    Preclinical    glycogen… GSK3A|GSK3B    <NA>          <NA>      
#>  7 A-1120       Preclinical    retinoid… RBP4           <NA>          <NA>      
#>  8 A-317491     Preclinical    purinerg… P2RX3          <NA>          <NA>      
#>  9 A-33903      Phase 2        <NA>      <NA>           <NA>          <NA>      
#> 10 A-366        Preclinical    histone … EHMT1|EHMT2    <NA>          <NA>      
#> # … with 6,788 more rows

Gene targets from TTD

data(gene_targets)
gene_targets
#> # A tibble: 24,727 × 2
#>    name                                            genes                        
#>    <chr>                                           <chr>                        
#>  1 (-)-(1S,1'R)-O,O-dimethylgrisbine hydrochloride DRD1|DRD2                    
#>  2 (-)-(R)-efonidipine                             CACNA1C|CACNA1G              
#>  3 (-)-(S)-BayK8644                                CACNA1C|CACNA1D|CACNA1F|CACN…
#>  4 (-)-3-(1-Propyl-piperidin-3-yl)-benzonitrile    DRD2|DRD3                    
#>  5 (-)-3,3'-bisdemethylpinoresinol                 ALOX15|ALOX5                 
#>  6 (-)-7-N-methyldibromophakellin                  ALOX12                       
#>  7 (-)-CATECHINGALLATE                             FASN|Malaria fabG|Malaria fa…
#>  8 (-)-Cercosporamide                              PRKCA|PRKCB|PRKCG            
#>  9 (-)-clusin                                      CYP3A4                       
#> 10 (-)-cubebin                                     CYP3A4                       
#> # … with 24,717 more rows
…
